<svg id="_001-analytics" data-name="001-analytics" xmlns="http://www.w3.org/2000/svg" width="46.356" height="46.356" viewBox="0 0 46.356 46.356">
  <g id="Group_2" data-name="Group 2" transform="translate(0 0)">
    <g id="Group_1" data-name="Group 1">
      <path id="Path_1" data-name="Path 1" d="M45.451,18.9H39.656a.905.905,0,0,0-.905.905v4.572a.905.905,0,1,0,1.811,0V20.711h3.984V44.546H40.562V31.168a.905.905,0,1,0-1.811,0V44.546H36.94V25.8a.905.905,0,0,0-.905-.905H30.24a.905.905,0,0,0-.905.905V44.546H27.524v-12.4a.905.905,0,0,0-.905-.905H20.824a.905.905,0,0,0-.905.905v12.4H18.108V37.336a.905.905,0,0,0-.905-.905H11.408a.905.905,0,0,0-.905.905v7.209H2.716a.906.906,0,0,1-.905-.905V2.716a.906.906,0,0,1,.905-.905H26.073V7.787A2.719,2.719,0,0,0,28.789,10.5h5.976V21.639a.905.905,0,0,0,1.811,0V9.6a.906.906,0,0,0-.265-.64L27.619.265A.906.906,0,0,0,26.979,0H2.716A2.719,2.719,0,0,0,0,2.716V43.64a2.719,2.719,0,0,0,2.716,2.716H45.451a.905.905,0,0,0,.905-.905V19.805A.905.905,0,0,0,45.451,18.9ZM27.884,3.091l5.6,5.6h-4.7a.906.906,0,0,1-.905-.905ZM16.3,44.546H12.313v-6.3H16.3Zm9.416,0H21.73v-11.5h3.984Zm9.416,0H31.146V26.709h3.984Z" transform="translate(0 0)" fill="#fff"/>
    </g>
  </g>
  <g id="Group_4" data-name="Group 4" transform="translate(38.751 26.699)">
    <g id="Group_3" data-name="Group 3">
      <path id="Path_2" data-name="Path 2" d="M429.545,295.155a.905.905,0,1,0,.265.64A.909.909,0,0,0,429.545,295.155Z" transform="translate(-428 -294.89)" fill="#fff"/>
    </g>
  </g>
  <g id="Group_6" data-name="Group 6" transform="translate(4.853 4.955)">
    <g id="Group_5" data-name="Group 5">
      <path id="Path_3" data-name="Path 3" d="M61.929,54.729a.905.905,0,0,0-.905.905v1.629a8.328,8.328,0,1,0,9.184,9.184h1.629a.905.905,0,0,0,.905-.905A10.825,10.825,0,0,0,61.929,54.729Zm0,17.329a6.517,6.517,0,0,1-.905-12.97v6.454a.905.905,0,0,0,.905.905h6.454A6.527,6.527,0,0,1,61.929,72.058Zm.905-7.422h0V56.585a9.019,9.019,0,0,1,8.051,8.051Z" transform="translate(-53.602 -54.729)" fill="#fff"/>
    </g>
  </g>
  <g id="Group_8" data-name="Group 8" transform="translate(4.889 26.641)">
    <g id="Group_7" data-name="Group 7">
      <path id="Path_4" data-name="Path 4" d="M72.2,294.25H54.905a.905.905,0,1,0,0,1.811H72.2a.905.905,0,1,0,0-1.811Z" transform="translate(-54 -294.25)" fill="#fff"/>
    </g>
  </g>
  <g id="Group_10" data-name="Group 10" transform="translate(4.889 31.01)">
    <g id="Group_9" data-name="Group 9">
      <path id="Path_5" data-name="Path 5" d="M60.7,342.5H54.905a.905.905,0,1,0,0,1.811H60.7a.905.905,0,1,0,0-1.811Z" transform="translate(-54 -342.5)" fill="#fff"/>
    </g>
  </g>
  <g id="Group_12" data-name="Group 12" transform="translate(15.218 31.01)">
    <g id="Group_11" data-name="Group 11">
      <path id="Path_6" data-name="Path 6" d="M169.625,342.765a.9.9,0,1,0,.265.64A.913.913,0,0,0,169.625,342.765Z" transform="translate(-168.08 -342.5)" fill="#fff"/>
    </g>
  </g>
</svg>
