<svg xmlns="http://www.w3.org/2000/svg" width="22" height="18.133" viewBox="0 0 22 18.133">
  <path id="Company" d="M20.9,15.939h-.759V9.172a1.2,1.2,0,0,0-1.2-1.2H15.466V5.507a.325.325,0,1,0-.649,0V7.975H11.891a1.193,1.193,0,0,0-.872.378,1.192,1.192,0,0,0-.872-.378H6.666V1.2A.547.547,0,0,1,7.213.65H8.684V1.841a.74.74,0,0,0,.739.74h2.529a.74.74,0,0,0,.738-.74V.65h1.58a.548.548,0,0,1,.547.547V3.98a.325.325,0,1,0,.649,0V1.2A1.2,1.2,0,0,0,14.27,0H7.213a1.2,1.2,0,0,0-1.2,1.2V7.975H3.091a1.2,1.2,0,0,0-1.2,1.2v6.767H1.1a1.1,1.1,0,0,0,0,2.194H20.9a1.1,1.1,0,0,0,0-2.194ZM12.04,1.841a.09.09,0,0,1-.088.09H9.423a.091.091,0,0,1-.089-.09V.65H12.04Zm1.972,6.784h2.707V9.816a.09.09,0,0,1-.089.088H14.1a.09.09,0,0,1-.089-.088Zm-2.121,0h1.471V9.816a.74.74,0,0,0,.739.739H16.63a.739.739,0,0,0,.739-.739V8.625h1.58a.548.548,0,0,1,.547.547v6.767H11.344V9.172a.548.548,0,0,1,.547-.547Zm-6.678,0H7.918V9.816A.089.089,0,0,1,7.83,9.9H5.3a.088.088,0,0,1-.088-.088ZM20.9,17.483H1.1a.447.447,0,0,1,0-.893H5.669a.325.325,0,0,0,0-.65H2.544V9.172a.547.547,0,0,1,.547-.547H4.563V9.816a.739.739,0,0,0,.738.739H7.83a.739.739,0,0,0,.738-.739V8.625h1.58a.548.548,0,0,1,.547.547v6.767H7.157a.325.325,0,0,0,0,.65H20.9a.447.447,0,1,1,0,.893Zm0,0" transform="translate(-0.001 0)" fill="#bbb"/>
</svg>
