<svg xmlns="http://www.w3.org/2000/svg" width="16" height="18.462" viewBox="0 0 16 18.462">
  <g id="Land_Inventory" data-name="Land Inventory" transform="translate(-6 -2)">
    <path id="Path_74" data-name="Path 74" d="M21.077,6h-.308V4.154a.923.923,0,0,0-.923-.923h-.308V2.923A.923.923,0,0,0,18.615,2H6.923A.923.923,0,0,0,6,2.923V18.308a.923.923,0,0,0,.923.923h.308v.308a.923.923,0,0,0,.923.923H19.846a.923.923,0,0,0,.923-.923V14h.308A.923.923,0,0,0,22,13.077V6.923A.923.923,0,0,0,21.077,6ZM19.846,3.846a.308.308,0,0,1,.308.308V6h-.615V3.846ZM8.462,2.615h.615v.831l-.052-.078a.32.32,0,0,0-.512,0l-.052.078ZM6.615,18.308V2.923a.308.308,0,0,1,.308-.308h.923V4.462a.308.308,0,0,0,.564.171l.359-.54.359.539a.308.308,0,0,0,.564-.17V2.615h8.923a.308.308,0,0,1,.308.308V6H9.385a.923.923,0,0,0-.923.923v6.154A.923.923,0,0,0,9.385,14h9.538v4.308a.308.308,0,0,1-.308.308H6.923A.308.308,0,0,1,6.615,18.308Zm13.538,1.231a.308.308,0,0,1-.308.308H8.154a.308.308,0,0,1-.308-.308v-.308H18.615a.923.923,0,0,0,.923-.923V14h.615Zm1.231-6.462a.308.308,0,0,1-.308.308H9.385a.308.308,0,0,1-.308-.308V6.923a.308.308,0,0,1,.308-.308H21.077a.308.308,0,0,1,.308.308Z" transform="translate(0 0)" fill="#bbb"/>
    <path id="Path_75" data-name="Path 75" d="M23.615,22H23v3.385a.308.308,0,0,0,.308.308h1.538v-.615H23.615Z" transform="translate(-11.769 -13.846)" fill="#bbb"/>
    <path id="Path_76" data-name="Path 76" d="M32.538,22h-.615a.923.923,0,0,0-.923.923v1.846a.923.923,0,0,0,.923.923h.615a.923.923,0,0,0,.923-.923V22.923A.923.923,0,0,0,32.538,22Zm.308,2.769a.308.308,0,0,1-.308.308h-.615a.308.308,0,0,1-.308-.308V22.923a.308.308,0,0,1,.308-.308h.615a.308.308,0,0,1,.308.308Z" transform="translate(-17.308 -13.846)" fill="#bbb"/>
    <path id="Path_77" data-name="Path 77" d="M41.923,22.615h.615a.308.308,0,0,1,.308.308h.615A.923.923,0,0,0,42.538,22h-.615a.923.923,0,0,0-.923.923v1.846a.923.923,0,0,0,.923.923h.615a.923.923,0,0,0,.923-.923v-.923a.308.308,0,0,0-.308-.308h-.923v.615h.615v.615a.308.308,0,0,1-.308.308h-.615a.308.308,0,0,1-.308-.308V22.923A.308.308,0,0,1,41.923,22.615Z" transform="translate(-24.231 -13.846)" fill="#bbb"/>
  </g>
</svg>
